…
We can fit this logistic regression in R using the `glm()` function. First we read in the data (`nepalData2019.csv`) and then fit the model using the syntax `y ~ x`, where `y` is the outcome variable (`death` in this case) and `x` is the predictor variable (`twins` in this case).



``` r
nepal_data <- read_csv("module_1/nepalData2019.csv")
nepal_data
```

```
## # A tibble: 10,295 × 9
##    death  male parity gestage death180 twins nblind treat firstbirth
##    <dbl> <dbl>  <dbl>   <dbl>    <dbl> <dbl>  <dbl> <dbl>      <dbl>
##  1     0     1      0      37        0     0      0     3          1
##  2     0     1      0      37        0     0      0     1          1
##  3     0     0      0      36        0     0      0     3          1
##  4     1     1      0      33        1     0      0     2          1
##  5    NA    NA      0      36        0     0      1     1          1
##  6     1     1      0      32        1     1      0     1          1
##  7     0     1      0      32        0     0      0     2          1
##  8     0     1      0      41        0     0      0     3          1
##  9     1     1      0      40        1     0      0     2          1
## 10     0     1      0      38        0     0      0     2          1
## # ℹ 10,285 more rows
```
…
