…
You can extend this idea to two additional variables as well:


``` r
my_table <- nmes_data %>%
  count(marital, beltuse, eversmk, disease) %>%
  group_by(marital, beltuse, eversmk) %>%
  mutate(prop = n/sum(n))

my_table
```

```
## # A tibble: 56 × 6
## # Groups:   marital, beltuse, eversmk [30]
##    marital beltuse eversmk      disease        n   prop
##      <dbl>   <dbl> <fct>        <fct>      <int>  <dbl>
##  1       1       1 Never smoker No disease   195 0.951 
##  2       1       1 Never smoker Disease       10 0.0488
##  3       1       1 Ever smoker  No disease   302 0.924 
##  4       1       1 Ever smoker  Disease       25 0.0765
##  5       1       2 Never smoker No disease   238 0.967 
##  6       1       2 Never smoker Disease        8 0.0325
##  7       1       2 Ever smoker  No disease   270 0.941 
##  8       1       2 Ever smoker  Disease       17 0.0592
##  9       1       3 Never smoker No disease   758 0.963 
## 10       1       3 Never smoker Disease       29 0.0368
## # ℹ 46 more rows
```
…
nmes_data <- nmes_data %>%
  mutate(female = factor(female,levels = c("0", "1"), labels = c("M", "F")))

my_table <- nmes_data %>%
   mutate(female_poor = paste(female, poor, sep = " ")) %>%
  mutate(female_poor_smk = paste(female_poor, eversmk, sep = " " )) %>%
  count(lc5, female_poor_smk, educate) %>%
  group_by(female_poor_smk) %>%
  mutate(prop = n/sum(n))

my_table
```

```
## # A tibble: 46 × 5
## # Groups:   female_poor_smk [8]
##    lc5   female_poor_smk       educate     n   prop
##    <fct> <chr>                   <dbl> <int>  <dbl>
##  1 No LC F N Poor Ever smoker        1   109 0.139 
##  2 No LC F N Poor Ever smoker        2   170 0.217 
##  3 No LC F N Poor Ever smoker        3   465 0.593 
##  4 No LC F N Poor Ever smoker        4    38 0.0485
##  5 No LC F N Poor Never smoker       1   214 0.195 
##  6 No LC F N Poor Never smoker       2   249 0.227 
##  7 No LC F N Poor Never smoker       3   523 0.477 
##  8 No LC F N Poor Never smoker       4   110 0.100 
##  9 No LC F Poor Ever smoker          1    13 0.0526
## 10 No LC F Poor Ever smoker          2    32 0.130 
## # ℹ 36 more rows
```
…
